{
  "cosmos.auth.v1beta1.AccountI": [
    "/cosmos.auth.v1beta1.ModuleAccount",
    "/ibc.applications.interchain_accounts.v1.InterchainAccount",
    "/cosmos.vesting.v1beta1.BaseVestingAccount",
    "/cosmos.vesting.v1beta1.DelayedVestingAccount",
    "/cosmos.vesting.v1beta1.ContinuousVestingAccount",
    "/cosmos.vesting.v1beta1.PeriodicVestingAccount",
    "/cosmos.vesting.v1beta1.PermanentLockedAccount",
    "/cosmos.auth.v1beta1.BaseAccount"
  ],
  "cosmos.auth.v1beta1.GenesisAccount": [
    "/cosmos.vesting.v1beta1.DelayedVestingAccount",
    "/cosmos.vesting.v1beta1.ContinuousVestingAccount",
    "/cosmos.vesting.v1beta1.PeriodicVestingAccount",
    "/cosmos.vesting.v1beta1.PermanentLockedAccount",
    "/cosmos.auth.v1beta1.BaseAccount",
    "/cosmos.auth.v1beta1.ModuleAccount",
    "/ibc.applications.interchain_accounts.v1.InterchainAccount",
    "/cosmos.vesting.v1beta1.BaseVestingAccount"
  ],
  "cosmos.bank.v1beta1.SupplyI": [
    "/cosmos.bank.v1beta1.Supply"
  ],
  "cosmos.base.v1beta1.Msg": [
    "/dyson.MsgUpdateScheduledRun",
    "/cosmos.gov.v1.MsgVote",
    "/cosmos.distribution.v1beta1.MsgWithdrawValidatorCommission",
    "/dyson.MsgDeleteScript",
    "/names.MsgBurnCoins",
    "/cosmos.group.v1.MsgCreateGroup",
    "/cosmos.group.v1.MsgUpdateGroupMetadata",
    "/cosmos.group.v1.MsgSubmitProposal",
    "/cosmos.group.v1.MsgWithdrawProposal",
    "/cosmos.vesting.v1beta1.MsgCreatePeriodicVestingAccount",
    "/names.MsgBurnNft",
    "/ibc.core.channel.v1.MsgChannelOpenTry",
    "/cosmos.gov.v1.MsgExecLegacyContent",
    "/cosmos.gov.v1beta1.MsgDeposit",
    "/ibc.applications.interchain_accounts.controller.v1.MsgSendTx",
    "/dyson.MsgDeleteScheduledRun",
    "/ibc.core.client.v1.MsgCreateClient",
    "/cosmos.authz.v1beta1.MsgGrant",
    "/cosmos.staking.v1beta1.MsgEditValidator",
    "/cosmos.staking.v1beta1.MsgDelegate",
    "/cosmos.gov.v1.MsgDeposit",
    "/cosmos.group.v1.MsgUpdateGroupPolicyAdmin",
    "/cosmos.vesting.v1beta1.MsgCreatePermanentLockedAccount",
    "/dyson.MsgDeleteStorage",
    "/names.MsgRegister",
    "/names.MsgAccept",
    "/ibc.core.channel.v1.MsgChannelOpenConfirm",
    "/cosmos.bank.v1beta1.MsgMultiSend",
    "/cosmos.gov.v1.MsgVoteWeighted",
    "/cosmos.group.v1.MsgExec",
    "/cosmos.distribution.v1beta1.MsgFundCommunityPool",
    "/names.MsgReveal",
    "/names.MsgMintNft",
    "/cosmos.bank.v1beta1.MsgSend",
    "/cosmos.gov.v1beta1.MsgSubmitProposal",
    "/dyson.MsgUpdateScript",
    "/dyson.MsgRun",
    "/names.MsgSetNftClass",
    "/ibc.applications.transfer.v1.MsgTransfer",
    "/cosmos.feegrant.v1beta1.MsgRevokeAllowance",
    "/dyson.MsgDeployAutonomousScript",
    "/ibc.core.channel.v1.MsgAcknowledgement",
    "/ibc.core.channel.v1.MsgTimeoutOnClose",
    "/cosmos.nft.v1beta1.MsgSend",
    "/cosmos.staking.v1beta1.MsgBeginRedelegate",
    "/cosmos.gov.v1.MsgSubmitProposal",
    "/cosmos.group.v1.MsgUpdateGroupAdmin",
    "/cosmos.group.v1.MsgUpdateGroupPolicyMetadata",
    "/cosmos.distribution.v1beta1.MsgSetWithdrawAddress",
    "/ibc.core.channel.v1.MsgChannelCloseInit",
    "/cosmos.group.v1.MsgUpdateGroupPolicyDecisionPolicy",
    "/cosmos.group.v1.MsgVote",
    "/names.MsgSetPriceAndExtend",
    "/cosmos.vesting.v1beta1.MsgCreateVestingAccount",
    "/names.MsgMintCoins",
    "/ibc.core.connection.v1.MsgConnectionOpenAck",
    "/ibc.core.channel.v1.MsgChannelOpenInit",
    "/ibc.core.channel.v1.MsgChannelOpenAck",
    "/cosmos.upgrade.v1beta1.MsgCancelUpgrade",
    "/cosmos.crisis.v1beta1.MsgVerifyInvariant",
    "/cosmos.slashing.v1beta1.MsgUnjail",
    "/ibc.core.connection.v1.MsgConnectionOpenTry",
    "/ibc.core.channel.v1.MsgRecvPacket",
    "/dyson.MsgCreateStorage",
    "/cosmos.authz.v1beta1.MsgRevoke",
    "/cosmos.gov.v1beta1.MsgVoteWeighted",
    "/ibc.core.connection.v1.MsgConnectionOpenInit",
    "/ibc.core.client.v1.MsgUpgradeClient",
    "/ibc.core.channel.v1.MsgTimeout",
    "/cosmos.staking.v1beta1.MsgCancelUnbondingDelegation",
    "/cosmos.feegrant.v1beta1.MsgGrantAllowance",
    "/cosmos.group.v1.MsgUpdateGroupMembers",
    "/names.MsgBuy",
    "/dyson.MsgCreateScheduledRun",
    "/names.MsgOfferTo",
    "/cosmos.gov.v1beta1.MsgVote",
    "/cosmos.group.v1.MsgCreateGroupWithPolicy",
    "/cosmos.group.v1.MsgCreateGroupPolicy",
    "/dyson.MsgUpdateStorage",
    "/names.MsgUpdateName",
    "/names.MsgUpdateNft",
    "/ibc.core.client.v1.MsgUpdateClient",
    "/ibc.core.client.v1.MsgSubmitMisbehaviour",
    "/ibc.core.channel.v1.MsgChannelCloseConfirm",
    "/cosmos.authz.v1beta1.MsgExec",
    "/cosmos.staking.v1beta1.MsgUndelegate",
    "/cosmos.distribution.v1beta1.MsgWithdrawDelegatorReward",
    "/ibc.applications.interchain_accounts.controller.v1.MsgRegisterInterchainAccount",
    "/ibc.core.connection.v1.MsgConnectionOpenConfirm",
    "/cosmos.staking.v1beta1.MsgCreateValidator",
    "/cosmos.evidence.v1beta1.MsgSubmitEvidence",
    "/cosmos.upgrade.v1beta1.MsgSoftwareUpgrade",
    "/cosmos.group.v1.MsgLeaveGroup",
    "/names.MsgDeleteName"
  ],
  "cosmos.crypto.PrivKey": [
    "/cosmos.crypto.ed25519.PrivKey",
    "/cosmos.crypto.secp256k1.PrivKey"
  ],
  "cosmos.crypto.PubKey": [
    "/cosmos.crypto.ed25519.PubKey",
    "/cosmos.crypto.secp256k1.PubKey",
    "/cosmos.crypto.multisig.LegacyAminoPubKey",
    "/cosmos.crypto.secp256r1.PubKey"
  ],
  "cosmos.evidence.v1beta1.Evidence": [
    "/cosmos.evidence.v1beta1.Equivocation"
  ],
  "cosmos.feegrant.v1beta1.FeeAllowanceI": [
    "/cosmos.feegrant.v1beta1.BasicAllowance",
    "/cosmos.feegrant.v1beta1.PeriodicAllowance",
    "/cosmos.feegrant.v1beta1.AllowedMsgAllowance"
  ],
  "cosmos.gov.v1beta1.Content": [
    "/cosmos.distribution.v1beta1.CommunityPoolSpendProposal",
    "/ibc.core.client.v1.ClientUpdateProposal",
    "/ibc.core.client.v1.UpgradeProposal",
    "/cosmos.gov.v1beta1.TextProposal",
    "/cosmos.params.v1beta1.ParameterChangeProposal",
    "/cosmos.upgrade.v1beta1.SoftwareUpgradeProposal",
    "/cosmos.upgrade.v1beta1.CancelSoftwareUpgradeProposal"
  ],
  "cosmos.group.v1.DecisionPolicy": [
    "/cosmos.group.v1.PercentageDecisionPolicy",
    "/cosmos.group.v1.ThresholdDecisionPolicy"
  ],
  "cosmos.tx.v1beta1.MsgResponse": [
    "/cosmos.gov.v1.MsgSubmitProposalResponse",
    "/cosmos.vesting.v1beta1.MsgCreatePeriodicVestingAccountResponse",
    "/names.MsgOfferToResponse",
    "/names.MsgAcceptResponse",
    "/cosmos.staking.v1beta1.MsgCreateValidatorResponse",
    "/cosmos.staking.v1beta1.MsgEditValidatorResponse",
    "/cosmos.staking.v1beta1.MsgCancelUnbondingDelegationResponse",
    "/cosmos.group.v1.MsgUpdateGroupPolicyMetadataResponse",
    "/cosmos.group.v1.MsgSubmitProposalResponse",
    "/dyson.MsgDeleteStorageResponse",
    "/names.MsgBurnCoinsResponse",
    "/ibc.core.connection.v1.MsgConnectionOpenInitResponse",
    "/ibc.core.channel.v1.MsgChannelOpenTryResponse",
    "/cosmos.distribution.v1beta1.MsgWithdrawDelegatorRewardResponse",
    "/cosmos.distribution.v1beta1.MsgWithdrawValidatorCommissionResponse",
    "/cosmos.slashing.v1beta1.MsgUnjailResponse",
    "/cosmos.staking.v1beta1.MsgDelegateResponse",
    "/cosmos.group.v1.MsgUpdateGroupMetadataResponse",
    "/cosmos.group.v1.MsgCreateGroupWithPolicyResponse",
    "/cosmos.group.v1.MsgExecResponse",
    "/names.MsgRegisterResponse",
    "/names.MsgBuyResponse",
    "/cosmos.bank.v1beta1.MsgMultiSendResponse",
    "/cosmos.gov.v1.MsgDepositResponse",
    "/names.MsgUpdateNameResponse",
    "/names.MsgDeleteNameResponse",
    "/names.MsgRevealResponse",
    "/ibc.core.channel.v1.MsgTimeoutResponse",
    "/cosmos.nft.v1beta1.MsgSendResponse",
    "/cosmos.gov.v1beta1.MsgSubmitProposalResponse",
    "/cosmos.gov.v1beta1.MsgVoteResponse",
    "/dyson.MsgUpdateStorageResponse",
    "/names.MsgMintCoinsResponse",
    "/ibc.core.client.v1.MsgSubmitMisbehaviourResponse",
    "/ibc.core.connection.v1.MsgConnectionOpenTryResponse",
    "/cosmos.gov.v1beta1.MsgDepositResponse",
    "/cosmos.group.v1.MsgUpdateGroupPolicyAdminResponse",
    "/cosmos.group.v1.MsgUpdateGroupPolicyDecisionPolicyResponse",
    "/cosmos.group.v1.MsgVoteResponse",
    "/ibc.core.channel.v1.MsgRecvPacketResponse",
    "/ibc.applications.transfer.v1.MsgTransferResponse",
    "/cosmos.upgrade.v1beta1.MsgCancelUpgradeResponse",
    "/cosmos.group.v1.MsgUpdateGroupAdminResponse",
    "/dyson.MsgUpdateScriptResponse",
    "/dyson.MsgRunResponse",
    "/names.MsgBurnNftResponse",
    "/ibc.core.client.v1.MsgCreateClientResponse",
    "/ibc.core.channel.v1.MsgAcknowledgementResponse",
    "/cosmos.authz.v1beta1.MsgExecResponse",
    "/cosmos.staking.v1beta1.MsgBeginRedelegateResponse",
    "/cosmos.group.v1.MsgWithdrawProposalResponse",
    "/cosmos.vesting.v1beta1.MsgCreateVestingAccountResponse",
    "/dyson.MsgCreateScheduledRunResponse",
    "/dyson.MsgCreateStorageResponse",
    "/ibc.core.connection.v1.MsgConnectionOpenAckResponse",
    "/ibc.core.channel.v1.MsgChannelOpenAckResponse",
    "/cosmos.authz.v1beta1.MsgGrantResponse",
    "/cosmos.group.v1.MsgCreateGroupResponse",
    "/ibc.core.channel.v1.MsgChannelCloseConfirmResponse",
    "/ibc.core.channel.v1.MsgTimeoutOnCloseResponse",
    "/cosmos.gov.v1.MsgVoteResponse",
    "/cosmos.evidence.v1beta1.MsgSubmitEvidenceResponse",
    "/ibc.core.client.v1.MsgUpgradeClientResponse",
    "/ibc.core.connection.v1.MsgConnectionOpenConfirmResponse",
    "/cosmos.crisis.v1beta1.MsgVerifyInvariantResponse",
    "/cosmos.group.v1.MsgLeaveGroupResponse",
    "/dyson.MsgDeployAutonomousScriptResponse",
    "/names.MsgSetPriceAndExtendResponse",
    "/names.MsgUpdateNftResponse",
    "/ibc.core.client.v1.MsgUpdateClientResponse",
    "/cosmos.vesting.v1beta1.MsgCreatePermanentLockedAccountResponse",
    "/names.MsgSetNftClassResponse",
    "/cosmos.group.v1.MsgUpdateGroupMembersResponse",
    "/cosmos.gov.v1.MsgExecLegacyContentResponse",
    "/cosmos.gov.v1.MsgVoteWeightedResponse",
    "/cosmos.distribution.v1beta1.MsgSetWithdrawAddressResponse",
    "/ibc.core.channel.v1.MsgChannelOpenInitResponse",
    "/cosmos.authz.v1beta1.MsgRevokeResponse",
    "/cosmos.staking.v1beta1.MsgUndelegateResponse",
    "/ibc.core.channel.v1.MsgChannelCloseInitResponse",
    "/cosmos.bank.v1beta1.MsgSendResponse",
    "/cosmos.gov.v1beta1.MsgVoteWeightedResponse",
    "/cosmos.feegrant.v1beta1.MsgGrantAllowanceResponse",
    "/cosmos.feegrant.v1beta1.MsgRevokeAllowanceResponse",
    "/cosmos.distribution.v1beta1.MsgFundCommunityPoolResponse",
    "/dyson.MsgDeleteScriptResponse",
    "/names.MsgMintNftResponse",
    "/ibc.core.channel.v1.MsgChannelOpenConfirmResponse",
    "/cosmos.upgrade.v1beta1.MsgSoftwareUpgradeResponse",
    "/cosmos.group.v1.MsgCreateGroupPolicyResponse"
  ],
  "cosmos.tx.v1beta1.Tx": [
    "/cosmos.tx.v1beta1.Tx"
  ],
  "cosmos.tx.v1beta1.TxExtensionOptionI": [],
  "cosmos.v1beta1.Authorization": [
    "/cosmos.bank.v1beta1.SendAuthorization",
    "/cosmos.staking.v1beta1.StakeAuthorization",
    "/cosmos.authz.v1beta1.GenericAuthorization"
  ],
  "cosmos.vesting.v1beta1.VestingAccount": [
    "/cosmos.vesting.v1beta1.ContinuousVestingAccount",
    "/cosmos.vesting.v1beta1.DelayedVestingAccount",
    "/cosmos.vesting.v1beta1.PeriodicVestingAccount",
    "/cosmos.vesting.v1beta1.PermanentLockedAccount"
  ],
  "ibc.core.channel.v1.ChannelI": [
    "/ibc.core.channel.v1.Channel"
  ],
  "ibc.core.channel.v1.CounterpartyChannelI": [
    "/ibc.core.channel.v1.Counterparty"
  ],
  "ibc.core.channel.v1.PacketI": [
    "/ibc.core.channel.v1.Packet"
  ],
  "ibc.core.client.v1.ClientState": [
    "/ibc.lightclients.tendermint.v1.ClientState",
    "/ibc.lightclients.localhost.v1.ClientState",
    "/ibc.lightclients.solomachine.v2.ClientState"
  ],
  "ibc.core.client.v1.ConsensusState": [
    "/ibc.lightclients.solomachine.v2.ConsensusState",
    "/ibc.lightclients.tendermint.v1.ConsensusState"
  ],
  "ibc.core.client.v1.Header": [
    "/ibc.lightclients.solomachine.v2.Header",
    "/ibc.lightclients.tendermint.v1.Header"
  ],
  "ibc.core.client.v1.Height": [
    "/ibc.core.client.v1.Height"
  ],
  "ibc.core.client.v1.Misbehaviour": [
    "/ibc.lightclients.solomachine.v2.Misbehaviour",
    "/ibc.lightclients.tendermint.v1.Misbehaviour"
  ],
  "ibc.core.commitment.v1.Path": [
    "/ibc.core.commitment.v1.MerklePath"
  ],
  "ibc.core.commitment.v1.Prefix": [
    "/ibc.core.commitment.v1.MerklePrefix"
  ],
  "ibc.core.commitment.v1.Proof": [
    "/ibc.core.commitment.v1.MerkleProof"
  ],
  "ibc.core.commitment.v1.Root": [
    "/ibc.core.commitment.v1.MerkleRoot"
  ],
  "ibc.core.connection.v1.ConnectionI": [
    "/ibc.core.connection.v1.ConnectionEnd"
  ],
  "ibc.core.connection.v1.CounterpartyConnectionI": [
    "/ibc.core.connection.v1.Counterparty"
  ],
  "ibc.core.connection.v1.Version": [
    "/ibc.core.connection.v1.Version"
  ]
}
